…
    ## Observations: 848
    ## Variables: 4
    ## $ GEOID    <chr> "29510101100", "29510101200", "29510101300", "2951010...
    ## $ NAME     <chr> "Census Tract 1011", "Census Tract 1012", "Census Tra...
    ## $ variable <chr> "P0030001", "P0030001", "P0030001", "P0030001", "P003...
    ## $ value    <dbl> 2600, 3100, 4336, 2703, 3126, 3092, 2780, 6028, 1846,...

This is what they look like as a table:

``` r
raceSTL_tract
```

    ## # A tibble: 848 x 4
    ##    GEOID       NAME              variable value
    ##    <chr>       <chr>             <chr>    <dbl>
    ##  1 29510101100 Census Tract 1011 P0030001 2600.
    ##  2 29510101200 Census Tract 1012 P0030001 3100.
    ##  3 29510101300 Census Tract 1013 P0030001 4336.
    ##  4 29510101400 Census Tract 1014 P0030001 2703.
    ##  5 29510101500 Census Tract 1015 P0030001 3126.
    ##  6 29510101800 Census Tract 1018 P0030001 3092.
    ##  7 29510102100 Census Tract 1021 P0030001 2780.
    ##  8 29510102200 Census Tract 1022 P0030001 6028.
    ##  9 29510102300 Census Tract 1023 P0030001 1846.
    ## 10 29510102400 Census Tract 1024 P0030001 2478.
    ## # ... with 838 more rows
…
